…
Call:
tslm(formula = Amtrak.ts ~ trend + I(trend^2))

Coefficients:
(Intercept)        trend   I(trend^2)  
  4.746e+08    2.683e+05   -8.023e+02  

# A tsibble: 402 x 2 [1M]
      index     value
      <mth>     <dbl>
 1 1991 Jan 496403905
 2 1991 Feb 469330349
 3 1991 Mar 587673262
 4 1991 Apr 509303884
 5 1991 May 564829409
 6 1991 Jun 600660491
 7 1991 Jul 628913573
 8 1991 Aug 659096915
 9 1991 Sep 492585869
10 1991 Oct 508901883
# ℹ 392 more rows
# ℹ Use `print(n = ...)` to see more rows
…
